<?xml version="1.0"?>
<svg xmlns="http://www.w3.org/2000/svg" viewBox="0 0 530 436" enable-background="new 0 0 530 436">
  <switch>
    <g>
      <circle cx="299" cy="308" r="10" fill="#fcd9b7" stroke="#4d4d4d" stroke-linejoin="round" stroke-linecap="round" stroke-width="4" stroke-miterlimit="10"/>
      <circle cx="233" cy="308" r="10" fill="#fcd9b7" stroke="#4d4d4d" stroke-linejoin="round" stroke-linecap="round" stroke-width="4" stroke-miterlimit="10"/>
      <path d="m267 347h-2c-17.673 0-32-14.327-32-32v-33l8.667-9h47.667l9.667 8v34c-.001 17.673-14.328 32-32 32z" fill="#fcd9b7" stroke="#4d4d4d" stroke-linejoin="round" stroke-linecap="round" stroke-width="4" stroke-miterlimit="10"/>
      <circle cx="253" cy="307" r="4" fill="#4d4d4d"/>
      <circle cx="279" cy="307" r="4" fill="#4d4d4d"/>
      <path fill="none" stroke="#4d4d4d" stroke-linejoin="round" stroke-linecap="round" stroke-width="4" stroke-miterlimit="10" d="m249 292l8-1"/>
      <path fill="none" stroke="#4d4d4d" stroke-linejoin="round" stroke-linecap="round" stroke-width="4" stroke-miterlimit="10" d="m275 291l8 1"/>
      <path d="m287 285c2.928 3.753 6.01 10.05 6.18 20l3.82-1.981v-19.841l-10 1.822" fill="#ae805e"/>
      <path d="m285.76 284.9c3.066 3.788 6.299 10.144 6.472 20.19l6-2" fill="none" stroke="#4d4d4d" stroke-linejoin="round" stroke-linecap="round" stroke-width="4" stroke-miterlimit="10"/>
      <path d="m252 317h-1c-5.523 0-10-4.477-10-10v-3c0-2.761 2.239-5 5-5h14c2.761 0 5 2.239 5 5 0 7.18-5.82 13-13 13z" fill="none" stroke="#4d4d4d" stroke-linejoin="round" stroke-linecap="round" stroke-width="4" stroke-miterlimit="10"/>
      <path d="m280 317h1c5.523 0 10-4.477 10-10v-3c0-2.761-2.239-5-5-5h-14c-2.761 0-5 2.239-5 5 0 7.18 5.82 13 13 13z" fill="none" stroke="#4d4d4d" stroke-linejoin="round" stroke-linecap="round" stroke-width="4" stroke-miterlimit="10"/>
      <path d="m322.5 96.5c0-25.16-22.34-46.15-52.02-50.96-3.979-25.668-31.32-45.54-64.48-45.54s-60.5 19.872-64.48 45.54c-29.677 4.813-52.02 25.798-52.02 50.96s22.34 46.15 52.02 50.96c3.979 25.668 31.32 45.54 64.48 45.54s60.5-19.872 64.48-45.54c29.677-4.813 52.02-25.798 52.02-50.96" fill="#f2f2f2"/>
      <path fill="none" stroke="#4d4d4d" stroke-linejoin="round" stroke-linecap="round" stroke-width="8" stroke-miterlimit="10" d="m85 432h360"/>
      <g>
        <circle cx="207" cy="248" r="5" fill="none" stroke="#4d4d4d" stroke-linejoin="round" stroke-linecap="round" stroke-width="4" stroke-miterlimit="10"/>
        <circle cx="181.5" cy="225" r="8" fill="none" stroke="#4d4d4d" stroke-linejoin="round" stroke-linecap="round" stroke-width="4" stroke-miterlimit="10"/>
        <circle cx="174" cy="186" r="10" fill="none" stroke="#4d4d4d" stroke-linejoin="round" stroke-linecap="round" stroke-width="4" stroke-miterlimit="10"/>
      </g>
      <path fill="none" stroke="#a3cc6c" stroke-linejoin="round" stroke-linecap="round" stroke-width="4" stroke-miterlimit="10" d="m106 28h36"/>
      <path fill="none" stroke="#fbb03b" stroke-linejoin="round" stroke-linecap="round" stroke-width="4" stroke-miterlimit="10" d="m48 28h50"/>
      <path fill="none" stroke="#a3cc6c" stroke-linejoin="round" stroke-linecap="round" stroke-width="4" stroke-miterlimit="10" d="m2 36h135"/>
      <path fill="none" stroke="#ed6265" stroke-linejoin="round" stroke-linecap="round" stroke-width="4" stroke-miterlimit="10" d="m2 28h10"/>
      <path fill="none" stroke="#ed6265" stroke-linejoin="round" stroke-linecap="round" stroke-width="4" stroke-miterlimit="10" d="m40 44h10"/>
      <path fill="none" stroke="#9f94c4" stroke-linejoin="round" stroke-linecap="round" stroke-width="4" stroke-miterlimit="10" d="m20 28h20"/>
      <path fill="none" stroke="#9f94c4" stroke-linejoin="round" stroke-linecap="round" stroke-width="4" stroke-miterlimit="10" d="m12 44h20"/>
      <path fill="none" stroke="#a3cc6c" stroke-linejoin="round" stroke-linecap="round" stroke-width="4" stroke-miterlimit="10" d="m474.5 214.07h53"/>
      <path fill="none" stroke="#fbb03b" stroke-linejoin="round" stroke-linecap="round" stroke-width="4" stroke-miterlimit="10" d="m416.5 214.07h50"/>
      <path fill="none" stroke="#a3cc6c" stroke-linejoin="round" stroke-linecap="round" stroke-width="4" stroke-miterlimit="10" d="m370.5 222.07h77"/>
      <path fill="none" stroke="#ed6265" stroke-linejoin="round" stroke-linecap="round" stroke-width="4" stroke-miterlimit="10" d="m370.5 214.07h10"/>
      <path fill="none" stroke="#ed6265" stroke-linejoin="round" stroke-linecap="round" stroke-width="4" stroke-miterlimit="10" d="m496.51 222.07h10"/>
      <path fill="none" stroke="#9f94c4" stroke-linejoin="round" stroke-linecap="round" stroke-width="4" stroke-miterlimit="10" d="m388.5 214.07h20"/>
      <path fill="none" stroke="#fbb03b" stroke-linejoin="round" stroke-linecap="round" stroke-width="4" stroke-miterlimit="10" d="m455.5 222.07h4.988"/>
      <path fill="none" stroke="#9f94c4" stroke-linejoin="round" stroke-linecap="round" stroke-width="4" stroke-miterlimit="10" d="m468.51 222.07h20"/>
      <path fill="none" stroke="#a3cc6c" stroke-linejoin="round" stroke-linecap="round" stroke-width="4" stroke-miterlimit="10" d="m256 10h150"/>
      <path fill="none" stroke="#a3cc6c" stroke-linejoin="round" stroke-linecap="round" stroke-width="4" stroke-miterlimit="10" d="m307 250h100"/>
      <path fill="none" stroke="#a3cc6c" stroke-linejoin="round" stroke-linecap="round" stroke-width="4" stroke-miterlimit="10" d="m414 250h50"/>
      <path fill="none" stroke="#fbb03b" stroke-linejoin="round" stroke-linecap="round" stroke-width="4" stroke-miterlimit="10" d="m307 258h30"/>
      <path fill="none" stroke="#ed6265" stroke-linejoin="round" stroke-linecap="round" stroke-width="4" stroke-miterlimit="10" d="m373 258h10"/>
      <path fill="none" stroke="#9f94c4" stroke-linejoin="round" stroke-linecap="round" stroke-width="4" stroke-miterlimit="10" d="m345 258h20"/>
      <path fill="none" stroke="#a3cc6c" stroke-linejoin="round" stroke-linecap="round" stroke-width="4" stroke-miterlimit="10" d="m347 2h53"/>
      <path fill="none" stroke="#fbb03b" stroke-linejoin="round" stroke-linecap="round" stroke-width="4" stroke-miterlimit="10" d="m289 2h50"/>
      <path fill="none" stroke="#ed6265" stroke-linejoin="round" stroke-linecap="round" stroke-width="4" stroke-miterlimit="10" d="m243 2h10"/>
      <path fill="none" stroke="#9f94c4" stroke-linejoin="round" stroke-linecap="round" stroke-width="4" stroke-miterlimit="10" d="m261 2h20"/>
      <path d="m326.28 426h-122.55c-2.057 0-3.724-1.667-3.724-3.724v-102.55c0-2.057 1.667-3.724 3.724-3.724h122.55c2.057 0 3.724 1.667 3.724 3.724v102.55c0 2.057-1.667 3.724-3.724 3.724" fill="#f8f1e7"/>
      <path fill="none" stroke="#4d4d4d" stroke-linejoin="round" stroke-linecap="round" stroke-width="4" stroke-miterlimit="10" d="m305 334h-80"/>
      <path fill="none" stroke="#4d4d4d" stroke-linejoin="round" stroke-linecap="round" stroke-width="4" stroke-miterlimit="10" d="m226.13 323v4"/>
      <path fill="none" stroke="#4d4d4d" stroke-linejoin="round" stroke-linecap="round" stroke-width="4" stroke-miterlimit="10" d="m233.2 323v4"/>
      <path fill="none" stroke="#4d4d4d" stroke-linejoin="round" stroke-linecap="round" stroke-width="4" stroke-miterlimit="10" d="m240.27 323v4"/>
      <path fill="none" stroke="#4d4d4d" stroke-linejoin="round" stroke-linecap="round" stroke-width="4" stroke-miterlimit="10" d="m247.33 323v4"/>
      <path fill="none" stroke="#4d4d4d" stroke-linejoin="round" stroke-linecap="round" stroke-width="4" stroke-miterlimit="10" d="m254.4 323v4"/>
      <path fill="none" stroke="#4d4d4d" stroke-linejoin="round" stroke-linecap="round" stroke-width="4" stroke-miterlimit="10" d="m261.47 323v4"/>
      <path fill="none" stroke="#4d4d4d" stroke-linejoin="round" stroke-linecap="round" stroke-width="4" stroke-miterlimit="10" d="m268.53 323v4"/>
      <path fill="none" stroke="#4d4d4d" stroke-linejoin="round" stroke-linecap="round" stroke-width="4" stroke-miterlimit="10" d="m275.6 323v4"/>
      <path fill="none" stroke="#4d4d4d" stroke-linejoin="round" stroke-linecap="round" stroke-width="4" stroke-miterlimit="10" d="m282.67 323v4"/>
      <path fill="none" stroke="#4d4d4d" stroke-linejoin="round" stroke-linecap="round" stroke-width="4" stroke-miterlimit="10" d="m289.73 323v4"/>
      <path fill="none" stroke="#4d4d4d" stroke-linejoin="round" stroke-linecap="round" stroke-width="4" stroke-miterlimit="10" d="m296.8 323v4"/>
      <path fill="none" stroke="#4d4d4d" stroke-linejoin="round" stroke-linecap="round" stroke-width="4" stroke-miterlimit="10" d="m303.87 323v4"/>
      <path fill="#f4e2c9" d="m201 317l-1 108 30-7v-50z"/>
      <path fill="#c69e83" d="m202 425h124l-26-7h-71z"/>
      <path fill="#f4e2c9" d="m329 317l1 108-30-7v-50z"/>
      <path d="m326.28 426h-122.55c-2.057 0-3.724-1.667-3.724-3.724v-102.55c0-2.057 1.667-3.724 3.724-3.724h122.55c2.057 0 3.724 1.667 3.724 3.724v102.55c0 2.057-1.667 3.724-3.724 3.724z" fill="none" stroke="#4d4d4d" stroke-linejoin="round" stroke-linecap="round" stroke-width="4" stroke-miterlimit="10"/>
      <path fill="none" stroke="#4d4d4d" stroke-linejoin="round" stroke-linecap="round" stroke-width="4" stroke-miterlimit="10" d="m203 424l28-6"/>
      <path d="m298.24 418h-66.47c-.974 0-1.764-.79-1.764-1.764v-46.47c0-.974.79-1.764 1.764-1.764h66.47c.974 0 1.764.79 1.764 1.764v46.47c0 .974-.79 1.764-1.764 1.764z" fill="#f8f1e7" stroke="#4d4d4d" stroke-linejoin="round" stroke-linecap="round" stroke-width="4" stroke-miterlimit="10"/>
      <path d="m283.39 390h-36.787c-.887 0-1.606-.719-1.606-1.606v-8.787c0-.887.719-1.606 1.606-1.606h36.787c.887 0 1.606.719 1.606 1.606v8.787c0 .887-.719 1.606-1.606 1.606z" fill="#f4e2c9" stroke="#4d4d4d" stroke-linejoin="round" stroke-linecap="round" stroke-width="4" stroke-miterlimit="10"/>
      <path fill="none" stroke="#4d4d4d" stroke-linejoin="round" stroke-linecap="round" stroke-width="4" stroke-miterlimit="10" d="m247.84 400v8"/>
      <path fill="none" stroke="#4d4d4d" stroke-linejoin="round" stroke-linecap="round" stroke-width="4" stroke-miterlimit="10" d="m254.73 400v8"/>
      <path fill="none" stroke="#4d4d4d" stroke-linejoin="round" stroke-linecap="round" stroke-width="4" stroke-miterlimit="10" d="m261.62 400v8"/>
      <path fill="none" stroke="#4d4d4d" stroke-linejoin="round" stroke-linecap="round" stroke-width="4" stroke-miterlimit="10" d="m268.51 400v8"/>
      <path fill="none" stroke="#4d4d4d" stroke-linejoin="round" stroke-linecap="round" stroke-width="4" stroke-miterlimit="10" d="m275.4 400v8"/>
      <path fill="none" stroke="#4d4d4d" stroke-linejoin="round" stroke-linecap="round" stroke-width="4" stroke-miterlimit="10" d="m282.29 400v8"/>
      <path fill="none" stroke="#4d4d4d" stroke-linejoin="round" stroke-linecap="round" stroke-width="4" stroke-miterlimit="10" d="m230 368l-28-50"/>
      <path fill="none" stroke="#4d4d4d" stroke-linejoin="round" stroke-linecap="round" stroke-width="4" stroke-miterlimit="10" d="m328 318l-28 50"/>
      <path fill="none" stroke="#4d4d4d" stroke-linejoin="round" stroke-linecap="round" stroke-width="4" stroke-miterlimit="10" d="m327 424l-28-6"/>
      <path d="m254.38 273.17c.576 5.381-15.401 12.969-15.389 31.31-1.75-.57-3.501-1.141-5.251-1.711-.208-.068-.428-.144-.56-.318-.14-.185-.147-.435-.148-.667-.029-7.16-.058-14.319-.087-21.479 0 0 2.059-20.303 24.06-19.303 0 0-3.248 6.332-2.624 12.166z" fill="#ae805e" stroke="#4d4d4d" stroke-linejoin="round" stroke-linecap="round" stroke-width="4" stroke-miterlimit="10"/>
      <path d="m256 262c2-8 22-7 30-2 6.91 4.319 13 10.01 13 18.505 0 .347 0 4.495 0 4.495s-52.991 18.965-43-21z" fill="#ae805e" stroke="#4d4d4d" stroke-linejoin="round" stroke-linecap="round" stroke-width="4" stroke-miterlimit="10"/>
      <g>
        <path d="m193.14 67.99c.525.49 1.22 1.166 2.077 1.844 1.714 1.358 4.096 2.752 7.112 2.752 3.02 0 5.853-1.535 8.281-2.8 1.273-.663 2.84-1.823 3.841-2.697s1.531-1.638.815-1.722c-.715-.083-.684.682-1.55 1.318-1.132.831-2.52 1.927-3.61 2.539-1.924 1.08-5.077 2.665-7.778 2.665-2.705 0-4.866-1.25-6.487-2.533-.81-.643-1.479-1.29-2.01-1.79-.395-.369-.49-1.195-1.116-1.273-.373-.029-.482.979.428 1.697" fill="#4d4d4d"/>
        <path d="m257.34 134.36c-.002-.002-.003-.003-.003-.005-.942-1.063-1.391-3.035-1.873-5.135-.481-2.099-1.02-4.362-2.743-5.828-.003-.003-.008-.006-.011-.009-.341-.298-.692-.549-1.045-.759-.354-.21-.712-.38-1.071-.515 2.395-7.103 1.456-14.176-.962-20.567-2.966-7.845-8.146-14.679-12.1-19.354-4.428-5.586-8.759-10.889-8.674-18.721.132-11.953 1.315-34.12-19.721-34.15-.855-.002-1.748.034-2.678.109-23.506 1.892-17.271 26.727-17.62 35.04-.43 6.081-1.662 10.875-5.846 16.82-4.913 5.842-11.832 15.3-15.11 25.15-1.546 4.646-2.282 9.381-1.603 13.864-.213.191-.414.391-.608.596-1.442 1.541-2.508 3.407-3.696 4.663-1.11 1.108-2.69 1.529-4.428 2.151-1.738.624-3.646 1.543-4.804 3.766 0 0 0 .002-.002.002-.002.003-.003.008-.006.011-.545 1.017-.722 2.114-.722 3.227 0 1.029.152 2.072.306 3.076.32 2.089.644 4.065.214 5.403-1.375 3.761-1.552 6.361-.584 8.248.972 1.891 2.966 2.724 5.222 3.196 4.511.941 10.619.708 15.432 3.26l.414-.781-.41.782c5.153 2.695 10.378 3.651 14.546 2.699 3.02-.689 5.476-2.49 6.737-5.259 3.26-.016 6.837-1.397 12.568-1.712 3.888-.314 8.745 1.381 14.331 1.071.146.605.357 1.189.646 1.743.003.004.006.011.009.016 2.165 4.331 6.188 6.311 10.477 5.973 4.293-.339 8.858-2.87 12.549-7.261l-.677-.568.682.562c3.517-4.265 9.355-6.03 13.228-8.368 1.936-1.167 3.505-2.629 3.627-4.753.122-2.123-1.125-4.5-3.99-7.681m-51.939-78.06c-.017-1.562.239-2.901.84-4.261.601-1.361 1.344-2.339 2.39-3.135 1.048-.795 2.077-1.159 3.295-1.172h.057c1.192 0 2.212.351 3.26 1.11 1.063.773 1.83 1.738 2.448 3.089.605 1.316.897 2.603.927 4.129 0 .04 0 .075.011.115.012 1.566-.258 2.899-.852 4.261-.338.776-.728 1.428-1.195 1.993-.158-.076-.323-.149-.494-.219-.591-.253-1.114-.461-1.583-.638-.469-.177-.835-.298-1.212-.428.273-.331.812-.72 1.012-1.209.304-.737.453-1.458.481-2.316 0-.034.011-.064.011-.104.017-.823-.092-1.526-.332-2.246-.251-.756-.571-1.299-1.034-1.751-.464-.452-.927-.657-1.482-.675-.026-.002-.051-.002-.078-.002-.522.002-.975.182-1.444.573-.492.411-.857.938-1.161 1.67-.303.733-.452 1.459-.481 2.322-.004.034-.004.064-.004.098-.011.475.02.91.093 1.332-1.068-.532-2.434-.921-3.378-1.146-.054-.408-.085-.829-.095-1.27v-.12m-13.871-3.363c.373-1.201.869-2.071 1.591-2.785.72-.716 1.447-1.076 2.322-1.121.068-.003.135-.005.202-.005.793.002 1.501.265 2.234.851.795.635 1.395 1.447 1.898 2.591.504 1.144.773 2.288.847 3.638v.011c.036.567.031 1.101-.014 1.617-.157.045-.309.093-.459.144-.854.295-1.532.62-2.187 1.053.064-.453.073-.913.023-1.426-.005-.028-.005-.051-.005-.079-.068-.681-.213-1.253-.453-1.83-.256-.601-.543-1.024-.92-1.35-.341-.295-.664-.432-1.021-.428-.036 0-.073.002-.11.005-.4.034-.733.23-1.048.613-.314.382-.52.857-.669 1.487-.149.629-.188 1.246-.126 1.956 0 .028.006.051.006.079.068.688.206 1.259.452 1.836.251.594.543 1.018.92 1.344.064.054.126.104.188.147-.391.303-.654.517-.977.753-.206.151-.452.331-.737.542-.622-.584-1.108-1.316-1.534-2.283-.503-1.142-.771-2.286-.852-3.637v-.011c-.074-1.35.058-2.511.429-3.712m.61 11.9c1.242-.931 2.105-1.565 2.681-1.985.571-.419.807-.577.99-.751 0-.002.002-.002.002-.003l.002-.002c.933-.883 2.421-2.493 4.664-3.264.771-.267 1.633-.438 2.597-.441 1.841-.008 4.056.596 6.737 2.319 1.647 1.071 2.927 1.161 5.878 2.425l.005.002.003.002c1.419.582 2.252 1.343 2.66 2.142.407.799.418 1.666.076 2.578-.681 1.824-2.858 3.744-5.909 4.697l-.003.002-.003.002c-1.489.483-2.786 1.552-4.318 2.426-1.529.875-3.261 1.582-5.614 1.445-1-.059-1.804-.258-2.49-.551-.686-.293-1.256-.681-1.797-1.116-1.083-.871-2.027-1.965-3.409-2.777l-.005-.002-.003-.003c-2.226-1.259-3.443-2.715-3.823-3.977-.383-1.263-.025-2.34 1.079-3.168m.874 86.78l-.002.009v.011c-.317 4.151-2.657 6.411-6.252 7.232-3.592.821-8.464.003-13.329-2.541-.002 0-.003-.002-.005-.002-5.383-2.851-11.786-2.567-15.894-3.426-2.054-.428-3.395-1.074-4.01-2.272-.615-1.2-.629-3.291.678-6.856l.006-.016.005-.016c.647-1.995.168-4.177-.146-6.226-.314-2.047-.467-3.911.233-5.209l.006-.012c.896-1.726 2.209-2.344 3.839-2.927 1.631-.585 3.564-1.044 5.09-2.575l.009-.008.008-.008c1.411-1.489 2.471-3.356 3.711-4.68 1.046-1.118 2.094-1.858 3.672-1.869.019.002.036.002.054 0 .276.002.57.025.88.073 2.095.317 3.922 1.782 5.683 4.169l5.082 9.262.002.005.003.003c1.352 2.823 4.208 5.929 6.628 9.1 2.42 3.168 4.292 6.348 4.048 8.782m-.427-6.724c-.666-1.054-1.431-2.099-2.218-3.129-.503-.658-1.02-1.312-1.532-1.957 1.01.002 1.867-.165 2.561-.478.863-.393 1.468-1.02 1.77-1.827.599-1.613-.003-3.888-1.923-6.488-1.92-2.598-5.172-5.53-9.95-8.461 0 0 0 0 0-.002-3.511-2.184-5.473-4.86-6.392-7.766-.92-2.907-.792-6.05-.082-9.153 1.36-5.956 4.852-11.749 7.081-15.384.599-.441.214.82-2.257 5.408-2.213 4.194-6.353 13.873-.686 21.43.152-5.377 1.436-10.861 3.592-15.991 3.14-7.117 9.707-19.461 10.229-29.3.27.196 1.194.82 1.605 1.054.002.002.002.002.003.002 1.204.709 2.109 1.746 3.281 2.688 1.175.944 2.642 1.759 4.858 1.887.213.012.421.019.624.019 2.285 0 4.067-.745 5.551-1.594 1.613-.922 2.901-1.943 4.123-2.341.002-.002.003-.002.005-.002 2.581-.807 4.632-2.235 5.799-3.899 2 7.904 6.668 19.32 9.666 24.891 1.594 2.955 4.764 9.236 6.133 16.802.868-.027 1.824.099 2.847.362 3.581-9.284-3.036-19.281-6.06-22.07-1.222-1.186-1.281-1.717-.674-1.692 3.281 2.904 7.592 8.742 9.159 15.333.715 3 .868 6.165.101 9.284.374.155.756.324 1.142.508 5.748 2.798 7.873 5.232 6.851 8.554-.337-.012-.669-.011-.992-.003-.029.002-.059.002-.09.002.834-2.633-1.01-4.574-5.925-6.797-5.096-2.241-9.156-2.02-9.842 2.529-.043.237-.079.481-.106.726-.382.133-.764.301-1.149.511-2.392 1.31-3.699 3.685-4.425 6.6-.725 2.912-.934 6.431-1.133 10.387 0 .002 0 .002 0 .003-.123 1.989-.942 4.68-1.771 7.53-8.348 5.954-19.933 8.534-29.771 1.819m66.977-2.959c-.074 1.31-1.023 2.283-2.775 3.339-3.502 2.113-9.709 3.95-13.672 8.751-3.443 4.096-7.64 6.345-11.336 6.637-3.696.292-6.884-1.242-8.765-5.01l-.003-.008-.005-.009c-1.167-2.22-.682-5.72.301-9.414.983-3.693 2.395-7.486 2.584-10.567v-.009c.199-3.949.421-7.398 1.083-10.06.664-2.662 1.709-4.463 3.559-5.476.087-.047.172-.092.258-.133.21 3.419 1.903 6.909 4.896 7.663 3.275.863 7.995-1.946 9.989-4.239.399-.016.787-.036 1.164-.045 1.749-.042 3.215.059 4.714 1.369l.005.005.005.003c1.152.976 1.7 2.82 2.175 4.885.475 2.066.854 4.315 2.279 5.919l.002.002.002.003c2.736 3.036 3.616 5.088 3.54 6.399" fill="#4d4d4d"/>
        <path d="m204.59 60.967c.1.322.62.269.92.423.263.136.475.433.771.441.283.008.722-.098.759-.378.049-.37-.492-.606-.84-.741-.448-.175-1.021-.263-1.441-.03-.097.054-.202.179-.169.285" fill="#4d4d4d"/>
        <path d="m199.83 61.831c.296-.009.508-.306.771-.441.3-.155.819-.101.92-.423.033-.105-.072-.231-.169-.284-.42-.234-.994-.145-1.441.03-.348.136-.889.371-.84.741.037.28.476.386.759.377" fill="#4d4d4d"/>
      </g>
    </g>
  </switch>
</svg>
